{
    "fluentMethods": true,
    "relationships": [
        {
            "relationshipType": "one-to-one",
            "relationshipName": "empl",
            "otherEntityName": "paymentPoints",
            "ownerSide": false,
            "otherEntityRelationshipName": "prefPayment"
        }
    ],
    "fields": [
        {
            "fieldName": "firstName",
            "fieldType": "String",
            "fieldValidateRules": [
                "required"
            ]
        },
        {
            "fieldName": "lastName",
            "fieldType": "String",
            "fieldValidateRules": [
                "required"
            ]
        },
        {
            "fieldName": "idNo",
            "fieldType": "Integer",
            "fieldValidateRules": [
                "required"
            ]
        },
        {
            "fieldName": "dob",
            "fieldType": "LocalDate",
            "fieldValidateRules": [
                "required"
            ]
        },
        {
            "fieldName": "age",
            "fieldType": "Integer",
            "fieldValidateRules": [
                "required"
            ]
        },
        {
            "fieldName": "gender",
            "fieldType": "GENDER",
            "fieldValues": "MALE,FEMALE",
            "fieldValidateRules": [
                "required"
            ]
        },
        {
            "fieldName": "estate",
            "fieldType": "String",
            "fieldValidateRules": [
                "required"
            ]
        },
        {
            "fieldName": "apartmentNo",
            "fieldType": "String"
        },
        {
            "fieldName": "email",
            "fieldType": "String",
            "fieldValidateRules": [
                "required"
            ]
        }
    ],
    "changelogDate": "20171123144411",
    "entityTableName": "employees",
    "dto": "no",
    "pagination": "no",
    "service": "serviceImpl"
}