{
    "fluentMethods": true,
    "relationships": [
        {
            "relationshipType": "one-to-one",
            "relationshipName": "goodsReturned",
            "otherEntityName": "goodsReturnedToSupplier",
            "ownerSide": false,
            "otherEntityRelationshipName": "batchSupplier"
        },
        {
            "relationshipType": "one-to-one",
            "relationshipName": "receivedFromSupplier",
            "otherEntityName": "goodsReceivedFromSupplier",
            "ownerSide": false,
            "otherEntityRelationshipName": "batchProduct"
        },
        {
            "relationshipType": "one-to-one",
            "relationshipName": "products",
            "otherEntityName": "supplierProducts",
            "ownerSide": false,
            "otherEntityRelationshipName": "supplier"
        }
    ],
    "fields": [
        {
            "fieldName": "code",
            "fieldType": "String",
            "fieldValidateRules": [
                "required"
            ]
        },
        {
            "fieldName": "name",
            "fieldType": "String",
            "fieldValidateRules": [
                "required"
            ]
        },
        {
            "fieldName": "mobileNo",
            "fieldType": "String",
            "fieldValidateRules": [
                "required"
            ]
        },
        {
            "fieldName": "location",
            "fieldType": "String",
            "fieldValidateRules": [
                "required"
            ]
        },
        {
            "fieldName": "email",
            "fieldType": "String"
        }
    ],
    "changelogDate": "20171123144417",
    "entityTableName": "suppliers",
    "dto": "no",
    "pagination": "infinite-scroll",
    "service": "serviceImpl"
}